…
``` r
A64_traffic <- readr::read_csv('https://raw.githubusercontent.com/rfordatascience/tidytuesday/master/data/2024/2024-12-03/A64_traffic.csv') #read in traffic data
```

#### Data Manipulation

``` r
#create a dataframe that just has the vehicle size data
car_size <- A64_traffic %>% #pull in A64 traffic data
  select("0 - 520 cm", "521 - 660 cm", "661 - 1160 cm", "1160+ cm") #select the columns of interest
car_size #look at this dataframe
```

    ## # A tibble: 11,904 × 4
    ##    `0 - 520 cm` `521 - 660 cm` `661 - 1160 cm` `1160+ cm`
    ##           <dbl>          <dbl>           <dbl>      <dbl>
    ##  1            9              0               0          1
    ##  2            5              0               0          1
    ##  3            5              0               1          0
    ##  4            4              0               3          0
    ##  5            2              0               0          0
    ##  6            3              0               1          2
    ##  7            2              0               3          3
    ##  8            0              0               1          0
    ##  9            1              0               0          1
    ## 10            1              0               0          0
    ## # ℹ 11,894 more rows

``` r
#create a dataframe that just has the vehicle speed data
car_speed <- A64_traffic %>% #A64_traffic %>% #pull in A64 traffic data
  select("0 - 10 mph", "11 - 15 mph", "16 - 20 mph", "21 - 25 mph", "26 - 30 mph", "31 - 35 mph", "36 - 40 mph", "41 - 45 mph", "46 - 50 mph", "51 - 55 mph", "56 - 60 mph", "61 - 70 mph", "71 - 80 mph", "80+ mph") #select the columns of interest
car_speed #look at this dataframe
```

    ## # A tibble: 11,904 × 14
    ##    `0 - 10 mph` `11 - 15 mph` `16 - 20 mph` `21 - 25 mph` `26 - 30 mph`
    ##           <dbl>         <dbl>         <dbl>         <dbl>         <dbl>
    ##  1            0             0             0             0             2
    ##  2            0             0             0             0             1
    ##  3            0             0             0             0             2
    ##  4            0             0             0             0             1
    ##  5            0             0             0             0             0
    ##  6            0             0             0             0             1
    ##  7            0             0             0             0             0
    ##  8            0             0             0             0             0
    ##  9            0             0             0             0             1
    ## 10            0             0             0             0             0
    ## # ℹ 11,894 more rows
    ## # ℹ 9 more variables: `31 - 35 mph` <dbl>, `36 - 40 mph` <dbl>,
    ## #   `41 - 45 mph` <dbl>, `46 - 50 mph` <dbl>, `51 - 55 mph` <dbl>,
    ## #   `56 - 60 mph` <dbl>, `61 - 70 mph` <dbl>, `71 - 80 mph` <dbl>,
    ## #   `80+ mph` <dbl>
…
